%YAML 1.1
%TAG !u! tag:unity3d.com,2011:
--- !u!114 &11400000
MonoBehaviour:
  m_ObjectHideFlags: 0
  m_CorrespondingSourceObject: {fileID: 0}
  m_PrefabInstance: {fileID: 0}
  m_PrefabAsset: {fileID: 0}
  m_GameObject: {fileID: 0}
  m_Enabled: 1
  m_EditorHideFlags: 0
  m_Script: {fileID: 11500000, guid: 04982a16c83e8f14c923485ba3354f95, type: 3}
  m_Name: WinScreen
  m_EditorClassIdentifier: 
  scenes:
  - {fileID: 102900000, guid: fc47688033136e746a4df0bed566a8ca, type: 3}
  scenePaths:
  - Assets/Scenes/WinScreen.unity
  sceneSetType: 1
