%YAML 1.1
%TAG !u! tag:unity3d.com,2011:
--- !u!114 &11400000
MonoBehaviour:
  m_ObjectHideFlags: 0
  m_CorrespondingSourceObject: {fileID: 0}
  m_PrefabInstance: {fileID: 0}
  m_PrefabAsset: {fileID: 0}
  m_GameObject: {fileID: 0}
  m_Enabled: 1
  m_EditorHideFlags: 0
  m_Script: {fileID: 11500000, guid: ac68687ec93bce14087c8d308cd67cab, type: 3}
  m_Name: Brothel
  m_EditorClassIdentifier: 
  sprite: {fileID: 21300000, guid: b996af867f4ed7e4da8eb8c60320cf16, type: 3}
  introduction: You are near by a brothel, where experienced ladies share their love.  It
    ain't free though.
  audioIntroduction: Play_BrothelStart
  audioOuttro: Play_BrothelEnd
  numberOfActions: 3
  responses:
  - 'Sell engine parts for some lovin''! '
  - 'Charm them with a dirty joke! '
  - 'Fantasise improprietly about the ladies! '
  audio:
  - Play_Brothel01
  - Play_Brothel02
  - Play_Brothel03
  fucks: 28000000ecffffff0a000000
  truck: feffffff0000000000000000
